…
``` r
# Install the development version from GitHub:
# install.packages("pak")
pak::pak("mikejohnpage/findtb")
```

## Usage

``` r
library(findtb)

# Load a dataset, for example, tb estimates:
tb_estimates
#> # A tibble: 29,502 × 6
#>    country     country_code g_whoregion  year variable         value
#>    <chr>       <chr>        <chr>       <dbl> <chr>            <dbl>
#>  1 Afghanistan AFG          EMR          2000 c_cdr               19
#>  2 Afghanistan AFG          EMR          2000 c_newinc_100k       36
#>  3 Afghanistan AFG          EMR          2000 e_inc_100k         190
#>  4 Afghanistan AFG          EMR          2000 e_inc_num        37000
#>  5 Afghanistan AFG          EMR          2000 e_mort_100k         68
#>  6 Afghanistan AFG          EMR          2000 e_pop_num     19542982
#>  7 Afghanistan AFG          EMR          2001 c_cdr               27
#>  8 Afghanistan AFG          EMR          2001 c_newinc_100k       51
#>  9 Afghanistan AFG          EMR          2001 e_inc_100k         189
#> 10 Afghanistan AFG          EMR          2001 e_inc_num        37000
#> # ℹ 29,492 more rows
…
# Return the estimates for 2021 of only the high TB burden countries:
tb_estimates |> 
  dplyr::filter(year == 2021) |> 
  dplyr::semi_join(tb_high_burden)
#> # A tibble: 168 × 6
#>    country    country_code g_whoregion  year variable         value
#>    <chr>      <chr>        <chr>       <dbl> <chr>            <dbl>
#>  1 Angola     AGO          AFR          2021 c_cdr               56
#>  2 Angola     AGO          AFR          2021 c_newinc_100k      179
#>  3 Angola     AGO          AFR          2021 e_inc_100k         322
#>  4 Angola     AGO          AFR          2021 e_inc_num       111000
#>  5 Angola     AGO          AFR          2021 e_mort_100k         59
#>  6 Angola     AGO          AFR          2021 e_pop_num     34503774
#>  7 Bangladesh BGD          SEA          2021 c_cdr               82
#>  8 Bangladesh BGD          SEA          2021 c_newinc_100k      181
#>  9 Bangladesh BGD          SEA          2021 e_inc_100k         221
#> 10 Bangladesh BGD          SEA          2021 e_inc_num       375000
#> # ℹ 158 more rows
```
…
